Homework 5
…
Cleaning & Renaming Variables - From HW2

Including some interim steps, the result is a new tibble named “ejscreen.clean” containing only the 6 variables I’m working with.

options(scipen = 999)
(ejscreen.clean <- ejscreen.tidy %>% 
   rename(superfund.area = PNPL,
          rmp.area = PRMP,
          tsdf.area = PTSDF,
          census.region = ID,
          population = ACSTOTPOP, 
          dem.index = VULEOPCT) %>% 
   select(superfund.area, rmp.area, tsdf.area,  census.region, population, dem.index))

# A tibble: 9,691 x 6
   superfund.area rmp.area tsdf.area census.region population
            <dbl>    <dbl>     <dbl>         <dbl>      <int>
 1         0.0436    2.79      31.2   170313000000       1964
 2         0.0306    1.28       8.24  170312000000        968
 3         0.0384    1.88      28.5   170318000000       1371
 4         0.0532    4.81       9.31  170313000000       2031
 5         0.0305    2.63       7.90  170312000000        576
 6         0.0431    2.91      40.4   170313000000       2446
 7         0.0398    2.72      28.7   170312000000       1181
 8         0.0326    0.872     12.8   170312000000       2223
 9         0.0350    2.22      20.9   170318000000        620
10         0.0309    1.17       8.44  170312000000       1026
# ... with 9,681 more rows, and 1 more variable: dem.index <dbl>
…
Combining Census Region Values

I checked how many occurrences there are of the census region codes in this dataset, and can see that the values of the individual census blocks contained in a given census region could potentially be combined into fewer values and summarized.

ejscreen.mean <- ejscreen.clean %>%
  group_by(census.region) %>%
  summarise(mean.rmp = mean(rmp.area), 
            mean.superfund = mean(superfund.area),
            mean.tsdf = mean(tsdf.area),
            mean.demindex = mean(dem.index),
            mean.population = mean(population))
ejscreen.mean

# A tibble: 114 x 6
   census.region mean.rmp mean.superfund mean.tsdf mean.demindex
           <dbl>    <dbl>          <dbl>     <dbl>         <dbl>
 1  170010000000    0.743         0.103     1.18           0.201
 2  170040000000    0.909         0.0521    0.742          0.454
 3  170060000000    0.363         0.0423    0.499          0.211
 4  170070000000    1.37          0.516     1.22           0.296
 5  170100000000    1.21          0.0225    0.0252         0.218
 6  170120000000    0.753         0.149     0.219          0.209
 7  170140000000    0.136         0.0254    0.0461         0.165
 8  170160000000    0.582         0.0359    0.0568         0.179
 9  170180000000    1.05          0.0130    0.0345         0.304
10  170190000000    1.28          0.0752    2.23           0.342
# ... with 104 more rows, and 1 more variable: mean.population <dbl>
…
                            Value
Demindex.Percentile_00  0.0000000
Demindex.Percentile_25  0.1778061
Demindex.Percentile_50  0.2175840
Demindex.Percentile_75  0.2651559
Demindex.Percentile_100 0.7777778

ejscreen.mean$Demindex.Quartile[ejscreen.mean$mean.demindex >= Demindex.Percentile_00 & ejscreen.mean$mean.demindex <  Demindex.Percentile_25]  = "1st Quartile"
ejscreen.mean$Demindex.Quartile[ejscreen.mean$mean.demindex > Demindex.Percentile_25 & ejscreen.mean$mean.demindex <  Demindex.Percentile_50]  = "2nd Quartile"
ejscreen.mean$Demindex.Quartile[ejscreen.mean$mean.demindex > Demindex.Percentile_50 & ejscreen.mean$mean.demindex < Demindex.Percentile_75] = "3rd Quartile"
ejscreen.mean$Demindex.Quartile[ejscreen.mean$mean.demindex > Demindex.Percentile_75 & ejscreen.mean$mean.demindex <=  Demindex.Percentile_100]  = "4th Quartile"

ejscreen.mean

# A tibble: 114 x 7
   census.region mean.rmp mean.superfund mean.tsdf mean.demindex
           <dbl>    <dbl>          <dbl>     <dbl>         <dbl>
 1  170010000000    0.743         0.103     1.18           0.201
 2  170040000000    0.909         0.0521    0.742          0.454
 3  170060000000    0.363         0.0423    0.499          0.211
 4  170070000000    1.37          0.516     1.22           0.296
 5  170100000000    1.21          0.0225    0.0252         0.218
 6  170120000000    0.753         0.149     0.219          0.209
 7  170140000000    0.136         0.0254    0.0461         0.165
 8  170160000000    0.582         0.0359    0.0568         0.179
 9  170180000000    1.05          0.0130    0.0345         0.304
10  170190000000    1.28          0.0752    2.23           0.342
# ... with 104 more rows, and 2 more variables:
#   mean.population <dbl>, Demindex.Quartile <chr>
…
