Homework 4
…
08-01-2021

#Importing dataset
library(readxl)
SENISData <- read_excel("../../_data/SENIScoresElementaryShools-20212022.xlsx")

#Creating tidySENI to only show variables of interest.
tidySENI <- select(SENISData, c('Local District', 
                                'Homeless Count', 
                                'Foster Count', 
                                'EL Count', 
                                'Total Enroll'))
tidySENI

# A tibble: 509 x 5
   `Local District` `Homeless Count` `Foster Count` `EL Count`
   <chr>                       <dbl>          <dbl>      <dbl>
 1 S                              11             16        287
 2 S                               5              2        118
 3 C                               6              4        238
 4 S                               3             11         87
 5 S                               1              8         92
 6 S                              14              1        100
 7 S                              13              4        173
 8 S                              20              4        157
 9 S                               1              4         94
10 S                               5              5         32
   `Total Enroll`
            <dbl>
 1            833
 2            354
 3            470
 4            350
 5            410
 6            505
 7            637
 8            612
 9            373
10            374
# ... with 499 more rows

#Re-coded Local District values to make them easier to read
tidySENI[,1] <- ifelse(tidySENI[,1]== "S", "SOUTH", 
                       ifelse(tidySENI[,1]== "C", "CENTRAL", 
                              ifelse(tidySENI[,1]=="W", "WEST", 
                                     ifelse(tidySENI[,1]=="E", "EAST", 
                                            ifelse(tidySENI[,1]=="NE", "NORTHEAST", 
                                                   ifelse(tidySENI[,1]=="NW", "NORTHWEST", 
                                                          99 ))))))
tidySENI

# A tibble: 509 x 5
   `Local District` `Homeless Count` `Foster Count` `EL Count`
   <chr>                       <dbl>          <dbl>      <dbl>
 1 SOUTH                          11             16        287
 2 SOUTH                           5              2        118
 3 CENTRAL                         6              4        238
 4 SOUTH                           3             11         87
 5 SOUTH                           1              8         92
 6 SOUTH                          14              1        100
 7 SOUTH                          13              4        173
 8 SOUTH                          20              4        157
 9 SOUTH                           1              4         94
10 SOUTH                           5              5         32
   `Total Enroll`
            <dbl>
 1            833
 2            354
 3            470
 4            350
 5            410
 6            505
 7            637
 8            612
 9            373
10            374
# ... with 499 more rows

Playing with pivot_longer, didnâ€™t help

pivlongSENI <-  tidySENI %>%
  pivot_longer(c(`Homeless Count`, `Foster Count`, `EL Count`), 
               names_to = "Counts", values_to = "Cases")
pivlongSENI

# A tibble: 1,527 x 4
   `Local District` `Total Enroll` Counts         Cases
   <chr>                     <dbl> <chr>          <dbl>
 1 SOUTH                       833 Homeless Count    11
 2 SOUTH                       833 Foster Count      16
 3 SOUTH                       833 EL Count         287
 4 SOUTH                       354 Homeless Count     5
 5 SOUTH                       354 Foster Count       2
 6 SOUTH                       354 EL Count         118
 7 CENTRAL                     470 Homeless Count     6
 8 CENTRAL                     470 Foster Count       4
 9 CENTRAL                     470 EL Count         238
10 SOUTH                       350 Homeless Count     3
# ... with 1,517 more rows

Playing with pivot wider but didnâ€™t help much either.

pivwideSENI <-  tidySENI %>% 
  pivot_wider(names_from = `Local District`, values_from = `Homeless Count`)
pivwideSENI

# A tibble: 509 x 9
   `Foster Count` `EL Count` `Total Enroll` SOUTH CENTRAL  EAST  WEST
            <dbl>      <dbl>          <dbl> <dbl>   <dbl> <dbl> <dbl>
 1             16        287            833    11      NA    NA    NA
 2              2        118            354     5      NA    NA    NA
 3              4        238            470    NA       6    NA    NA
 4             11         87            350     3      NA    NA    NA
 5              8         92            410     1      NA    NA    NA
 6              1        100            505    14      NA    NA    NA
 7              4        173            637    13      NA    NA    NA
 8              4        157            612    20      NA    NA    NA
 9              4         94            373     1      NA    NA    NA
10              5         32            374     5      NA    NA    NA
   NORTHWEST NORTHEAST
       <dbl>     <dbl>
 1        NA        NA
 2        NA        NA
 3        NA        NA
 4        NA        NA
 5        NA        NA
 6        NA        NA
 7        NA        NA
 8        NA        NA
 9        NA        NA
10        NA        NA
# ... with 499 more rows
…
